Q1,Q2
0.22,-5.13
-0.87,-2.15
-2.39,-3.43
-1.79,-3.83
0.37,0.5
-1.54,-3.25
1.28,4.32
-0.31,0.63
-0.74,5.18
1.72,-0.43
0.38,7.11
-0.17,4.87
-1.62,-3.1
-1.1,-5.81
0.3,3.76
0.15,6.31
2.3,2.58
0.19,0.07
-0.5,5.76
-0.09,3.5